Meu log de leitura de R for Data Science
…
Eles não começam usando o bom e velho conjunto de dados iris - seria legal, dados biológicos e tals. Mas tranquilo, vamos mexer com motores de carro então, hehe. O tal do mpg também é um conjuntinho de dados usado em muito exemplo por aí.

E percebam que a parada já começa com um chute no pau da barraca do R: os dados estão no formato tibble, que é próprio do tidyverse, e não é exatamente igual com o formato data.frame que está na base do R (mas eles são parecidos, e é fácil converter um tibble para data.frame usando o bom e velho as.data.frame(), se precisarmos - espero nem precisar).

3.1 Começando a prática: entendendo o tibble

Carregando os dados, eu ainda tenho que acostumar com o formato tibble, mas acho que é mais coisa de hábito mesmo. Uma das características básicas dele é que se você “chama” o objeto, ele não vai tacar tudo no console como um data.frame faria. Ele mostra 6 linhas (como quando usamos head()) e no exemplo ali ele mostrou 10 colunas (não sei se é sempre assim, mas imagino que sim). Ele também nos dá as dimensões, indica os tipos de variáveis para cada coluna, e no final conta o que ficou de fora. É bacana, acho.

Vou começar a experimentar, e antes de seguir o rumo do livro, quero entender bem o tibble

Então vamos lá, primeiro “chamando” normalmente, como no livro:

mpg

## # A tibble: 234 x 11
##    manufacturer model    displ  year   cyl trans   drv     cty   hwy fl   
##    <chr>        <chr>    <dbl> <int> <int> <chr>   <chr> <int> <int> <chr>
##  1 audi         a4         1.8  1999     4 auto(l~ f        18    29 p    
##  2 audi         a4         1.8  1999     4 manual~ f        21    29 p    
##  3 audi         a4         2    2008     4 manual~ f        20    31 p    
##  4 audi         a4         2    2008     4 auto(a~ f        21    30 p    
##  5 audi         a4         2.8  1999     6 auto(l~ f        16    26 p    
##  6 audi         a4         2.8  1999     6 manual~ f        18    26 p    
##  7 audi         a4         3.1  2008     6 auto(a~ f        18    27 p    
##  8 audi         a4 quat~   1.8  1999     4 manual~ 4        18    26 p    
##  9 audi         a4 quat~   1.8  1999     4 auto(l~ 4        16    25 p    
## 10 audi         a4 quat~   2    2008     4 manual~ 4        20    28 p    
## # ... with 224 more rows, and 1 more variable: class <chr>
…
